﻿Sno.,SERVICE TAG,OWNER NAME,MODEL,PRICE_MODEL,PURCHASE DATE,WARRANTY PERIOD,MANUFACTURE DATE,STATUS OF ANTIVIRUS,ANTIVIRUS PERIOD,ACCESSORY 1,ACCESSORY 2,ACCESSORY 3,WARRANTY STATUS,ANTIVIRUS PRICE
1,17241,MANOJ,COWABUNGA 4,65000,"2018,10,25",2,"2018,09,30",1,2,1,0,1,1,950
2,17551,SANTOSH,MERCURY 3,25000,"2018,10,18",2,"2018,09,18",0,1,0,0,1,1,700
3,17538,RAKSHIT,RUBIKS i1,45550,"2018,10,23",2,"2018,10,01",1,1,1,1,1,1,950
4,17569,SAI SREE,PINNACLE i2,135000,"2018,10,27",2,"2018,09,20",0,0,0,1,1,1,0
5,17554,VIKHYATH,COWABUNGA 4,65000,"2018,10,26",2,"2018,09,21",1,1,1,1,1,1,700
6,17233,RAHUL,COWABUNGA 4,65000,"2018,10,23",2,"2018,09,15",1,2,1,0,1,1,1200
7,17222,MADHUNIKA,COWABUNGA 4,65000,"2018,10,18",2,"2018,10,01",1,2,1,0,1,1,950
8,17511,ANIL,RUBIKS 1,34999,"2018,10,21",2,"2018,09,01",0,0,1,1,1,1,0
9,17251,SRAVYA,COWABUNGA i4,80000,"2017,05,25",2,"2016,12,22",0,2,1,1,1,0,1200
10,17548,SHARAT,MERCURY 3,25000,"2017,10,28",2,"2017,01,05",1,2,1,0,1,1,950
,,,,,,,,,,,,,,
,,,,,,,,,,,,,,
,,,,,,,,,,,,,,
,,,,,,,,,,,,,,
,,,,,,,,,,,,,,
,,,,,,,,,,,,,,
,,,,,,,,,,,,,,
,,,,,,,,,,,,,,
,,,,,,,,,,,,,,
,,,,,,,,,,,,,,
,,,,,,,,,,,,,,
,,,,,,,,,,,,,,
,,,,,,,,,,,,,,
,,,,,,,,,,,,,,
,,,,,,,,,,,,,,
,,,,,,,,,,,,,,
,,,,,,,,,,,,,,
,,,,,,,,,,,,,,
,,,,,,,,,,,,,,
,,,,,,,,,,,,,,
,,,,,,,,,,,,,,
,,,,,,,,,,,,,,
,,,,,,,,,,,,,,
,,,,,,,,,,,,,,
,,,,,,,,,,,,,,
,,,,,,,,,,,,,,
,,,,,,,,,,,,,,
,,,,,,,,,,,,,,
,,,,,,,,,,,,,,
,,,,,,,,,,,,,,
,,,,,,,,,,,,,,
,,,,,,,,,,,,,,
,,,,,,,,,,,,,,
,,,,,,,,,,,,,,
,,,,,,,,,,,,,,
,,,,,,,,,,,,,,
,,,,,,,,,,,,,,
,,,,,,,,,,,,,,
,,,,,,,,,,,,,,
,,,,,,,,,,,,,,
,,,,,,,,,,,,,,
,,,,,,,,,,,,,,
,,,,,,,,,,,,,,
,,,,,,,,,,,,,,
,,,,,,,,,,,,,,
,,,,,,,,,,,,,,
,,,,,,,,,,,,,,
,,,,,,,,,,,,,,
,,,,,,,,,,,,,,
,,,,,,,,,,,,,,
,,,,,,,,,,,,,,
,,,,,,,,,,,,,,
,,,,,,,,,,,,,,
,,,,,,,,,,,,,,
,,,,,,,,,,,,,,
,,,,,,,,,,,,,,
,,,,,,,,,,,,,,
,,,,,,,,,,,,,,
,,,,,,,,,,,,,,
,,,,,,,,,,,,,,
,,,,,,,,,,,,,,
,,,,,,,,,,,,,,
,,,,,,,,,,,,,,
,,,,,,,,,,,,,,
,,,,,,,,,,,,,,
,,,,,,,,,,,,,,
,,,,,,,,,,,,,,
,,,,,,,,,,,,,,
,,,,,,,,,,,,,,
,,,,,,,,,,,,,,
,,,,,,,,,,,,,,
,,,,,,,,,,,,,,
,,,,,,,,,,,,,,
,,,,,,,,,,,,,,
,,,,,,,,,,,,,,
,,,,,,,,,,,,,,
,,,,,,,,,,,,,,
,,,,,,,,,,,,,,
,,,,,,,,,,,,,,
,,,,,,,,,,,,,,
